[
    {
        "url": "https://images.unsplash.com/photo-1565956441740-3bc5238a54d3?ixlib=rb-1.2.1&q=80&fm=jpg&crop=entropy&cs=tinysrgb&dl=philipp-knape-2Xl8wpzjP7Y-unsplash.jpg"
    },
    {
        "url": "https://images.unsplash.com/photo-1565786122857-65d164d8c04d?ixlib=rb-1.2.1&q=80&fm=jpg&crop=entropy&cs=tinysrgb&dl=david-becker-Wui8G2exQf4-unsplash.jpg"
    }
]
